Mediator-pass through with normal errors — model_outcome_normal • netmediate
…
coef(o)
#>         C1         C2         C3         C4         C5        US1        US2 
#>  1.5630803  1.5699783 -0.2582638  0.8888586  0.7438249  1.4800528  0.9713906 
#>        US3        US4        US5 
#>  0.8083983  1.1623375  1.4322346 

graph <- sample_tidygraph(o)
graph
#> # A tbl_graph: 100 nodes and 7476 edges
#> #
#> # An undirected multigraph with 1 component
#> #
#> # A tibble: 100 × 7
#>    name    C1    C2    C3    C4    C5     y
#>   <int> <dbl> <dbl> <dbl> <dbl> <dbl> <dbl>
#> 1     1  2.99     0     0     0     0 10.3 
#> 2     2  2.95     0     0     0     0  8.46
#> 3     3  2.93     0     0     0     0  9.83
#> 4     4  2.87     0     0     0     0  9.46
#> 5     5  2.84     0     0     0     0  9.70
#> 6     6  2.76     0     0     0     0 10.5 
#> # ℹ 94 more rows
#> #
#> # A tibble: 7,476 × 2
#>    from    to
#>   <int> <int>
#> 1     1     9
#> 2     2    14
#> 3     5     5
#> # ℹ 7,473 more rows
…
