Use spectral node embeddings in ordinary least squares regression — nodelm • netmediate
…
library(Matrix)
library(tidygraph)

B <- igraph::as_adjacency_matrix(addhealth[[36]], attr = "weight")

node <- addhealth[[36]] |>
  as_tibble() |>
  mutate(level = rowSums(B))

node[5, "sex"] <- NA
node
#> # A tibble: 2,209 × 5
#>    sex    race     grade school level
#>    <fct>  <fct>    <int> <fct>  <dbl>
#>  1 male   hispanic    10 B          5
#>  2 male   hispanic    10 B          0
#>  3 female hispanic     9 B          0
#>  4 male   hispanic    10 B         19
#>  5 NA     hispanic     9 B         16
#>  6 female hispanic    11 B          0
#>  7 female hispanic     9 B          7
#>  8 male   white        9 B         19
#>  9 male   white       11 B          8
#> 10 female white       10 B          6
#> # … with 2,199 more rows
…
