Estimate mediated effects for a variety of embedding dimensions — sensitivity_curve • netmediate
…
A rank_sensitivity_curve object, which is a subclass of a
tibble::tibble().

    Examples

library(tidygraph)

rank_curve <- smoking |>
  mutate(
    smokes_int = as.integer(smokes) - 1
  ) |>
 sensitivity_curve(smokes_int ~ sex, max_rank = 25, 25)

rank_curve
#> # A tibble: 48 × 6
#>    term    estimand estimate conf.low conf.high  rank
#>    <chr>   <chr>       <dbl>    <dbl>     <dbl> <dbl>
#>  1 sexmale nde        0.449   0.321      0.576      2
#>  2 sexmale nie        0.0234 -0.0273     0.0741     2
#>  3 sexmale nde        0.444   0.312      0.577      3
#>  4 sexmale nie        0.0277 -0.0342     0.0897     3
#>  5 sexmale nde        0.446   0.312      0.579      4
#>  6 sexmale nie        0.0265 -0.0361     0.0892     4
#>  7 sexmale nde        0.407   0.274      0.539      5
#>  8 sexmale nie        0.0657 -0.00600    0.137      5
#>  9 sexmale nde        0.361   0.222      0.500      6
#> 10 sexmale nie        0.111   0.0255     0.197      6
#> # … with 38 more rows
…
