reddit • netmediate
…
# here we construct our "custom" embeddings

iform <- RegularizedLaplacian(A_okc, 100, 100)
L_okc <- transform(iform, A_okc)

max_rank <- 50

s_max <- RSpectra::svds(L_okc, max_rank, max_rank)
X_max <- s_max$u %*% diag(sqrt(s_max$d))

# and now we plug them into the product-of-coefs estimator

curve_custom <- sensitivity_curve_custom(okcupid, score ~ flair, X_max)
curve_custom
#> # A tibble: 98 × 6
#>    term      estimand estimate conf.low conf.high  rank
#>    <chr>     <chr>       <dbl>    <dbl>     <dbl> <int>
#>  1 flairmale nde      -1.09     -1.67   -0.509        2
#>  2 flairmale nie      -0.00667  -0.0696  0.0562       2
#>  3 flairmale nde      -1.02     -1.61   -0.444        3
#>  4 flairmale nie      -0.0719   -0.145   0.000706     3
#>  5 flairmale nde      -1.01     -1.59   -0.433        4
#>  6 flairmale nie      -0.0832   -0.159  -0.00755      4
#>  7 flairmale nde      -0.706    -1.29   -0.121        5
#>  8 flairmale nie      -0.391    -0.508  -0.274        5
#>  9 flairmale nde      -0.736    -1.32   -0.149        6
#> 10 flairmale nie      -0.360    -0.488  -0.232        6
#> # ℹ 88 more rows
…
